cn/parsec/thrift/hello/MultiplicationServer.class
tutorial/MultiplicationService$multiply_args$multiply_argsTupleScheme.class
tutorial/MultiplicationService$multiply_args$multiply_argsStandardScheme.class
tutorial/MultiplicationService$AsyncProcessor.class
tutorial/MultiplicationService$AsyncProcessor$multiply.class
tutorial/MultiplicationService$AsyncClient$Factory.class
tutorial/MultiplicationService$multiply_args$_Fields.class
tutorial/MultiplicationService$multiply_result$multiply_resultStandardSchemeFactory.class
cn/parsec/thrift/hello/MultiplicationClient.class
tutorial/MultiplicationService$Iface.class
tutorial/MultiplicationService$Client.class
tutorial/MultiplicationService$multiply_result$multiply_resultStandardScheme.class
tutorial/MultiplicationService$multiply_args$multiply_argsTupleSchemeFactory.class
tutorial/MultiplicationService$AsyncIface.class
tutorial/MultiplicationService$multiply_args.class
cn/parsec/thrift/hello/MultiplicationHandler.class
cn/parsec/thrift/hello/MultiplicationServer$1.class
cn/parsec/thrift/hello/App.class
tutorial/MultiplicationService$Processor$multiply.class
tutorial/MultiplicationService$AsyncProcessor$multiply$1.class
tutorial/MultiplicationService$multiply_result$multiply_resultTupleScheme.class
tutorial/MultiplicationService$AsyncClient.class
tutorial/MultiplicationService$Client$Factory.class
tutorial/MultiplicationService$Processor.class
tutorial/MultiplicationService$multiply_result.class
tutorial/MultiplicationService$multiply_args$multiply_argsStandardSchemeFactory.class
tutorial/MultiplicationService$multiply_result$_Fields.class
tutorial/MultiplicationService$1.class
tutorial/MultiplicationService.class
tutorial/MultiplicationService$AsyncClient$multiply_call.class
tutorial/MultiplicationService$multiply_result$multiply_resultTupleSchemeFactory.class
